SELECT *
FROM (`ent_entidades`)
WHERE `sitExclusao` =  'N'
AND `tipoEntidade` =  'cliente' 
 Tempo de Execução:0.25152015686035
 Hora da Execução:  16:04:15

SELECT *
FROM (`ent_entidades`)
WHERE `sitExclusao` =  'N'
AND `tipoEntidade` =  'cliente' 
 Tempo de Execução:0.00075888633728027
 Hora da Execução:  16:10:47

Select
                    b.descBanco,
                    c.nomeReferencia,
                    c.numAgencia,
                    c.numConta,
                    c.sitStatusConta,
                    c.sitExclusao
                  From
                    metacriar_app.fin_contas c Inner Join
                    metacriar_app.fin_bancos b On c.idBanco = b.idBanco
                  Where
                    c.sitExclusao = 'N'                
                 
 Tempo de Execução:0.13486886024475
 Hora da Execução:  16:34:37

Select
                    b.descBanco,
                    c.nomeReferencia,
                    c.numAgencia,
                    c.numConta,
                    c.sitStatusConta,
                    c.sitExclusao
                  From
                    metacriar_app.fin_contas c Inner Join
                    metacriar_app.fin_bancos b On c.idBanco = b.idBanco
                  Where
                    c.sitExclusao = 'N'                
                 
 Tempo de Execução:0.00053119659423828
 Hora da Execução:  16:34:58

Select
                    b.descBanco,
                    c.nomeReferencia,
                    c.numAgencia,
                    c.numConta,
                    c.sitStatusConta,
                    c.sitExclusao
                  From
                    metacriar_app.fin_contas c Inner Join
                    metacriar_app.fin_bancos b On c.idBanco = b.idBanco
                  Where
                    c.sitExclusao = 'N'                
                 
 Tempo de Execução:0.12189888954163
 Hora da Execução:  16:43:10

SELECT *
FROM (`ent_entidades`)
WHERE `sitExclusao` =  'N'
AND `tipoEntidade` =  'cliente' 
 Tempo de Execução:0.026111125946045
 Hora da Execução:  16:46:18

SELECT *
FROM (`ent_entidades`)
WHERE `sitExclusao` =  'N'
AND `tipoEntidade` =  'cliente' 
 Tempo de Execução:0.030297994613647
 Hora da Execução:  22:25:07

SELECT *
FROM (`ent_entidades`)
WHERE `sitExclusao` =  'N'
AND `tipoEntidade` =  'fornecedor' 
 Tempo de Execução:0.0017719268798828
 Hora da Execução:  22:25:16

Select
                    b.descBanco,
                    c.nomeReferencia,
                    c.numAgencia,
                    c.numConta,
                    c.sitStatusConta,
                    c.sitExclusao
                  From
                    metacriar_app.fin_contas c Inner Join
                    metacriar_app.fin_bancos b On c.idBanco = b.idBanco
                  Where
                    c.sitExclusao = 'N'                
                 
 Tempo de Execução:0.013952016830444
 Hora da Execução:  22:30:28

Select
                    b.descBanco,
                    c.nomeReferencia,
                    c.numAgencia,
                    c.numConta,
                    c.sitStatusConta,
                    c.sitExclusao
                  From
                    metacriar_app.fin_contas c Inner Join
                    metacriar_app.fin_bancos b On c.idBanco = b.idBanco
                  Where
                    c.sitExclusao = 'N'                
                 
 Tempo de Execução:0.00091004371643066
 Hora da Execução:  22:43:39

Select
                    b.descBanco,
                    c.nomeReferencia,
                    c.numAgencia,
                    c.numConta,
                    c.sitStatusConta,
                    c.sitExclusao
                  From
                    metacriar_app.fin_contas c Inner Join
                    metacriar_app.fin_bancos b On c.idBanco = b.idBanco
                  Where
                    c.sitExclusao = 'N'                
                 
 Tempo de Execução:0.00065517425537109
 Hora da Execução:  22:45:29

Select
                    b.descBanco,
                    c.nomeReferencia,
                    c.numAgencia,
                    c.numConta,
                    c.sitStatusConta,
                    c.sitExclusao
                  From
                    metacriar_app.fin_contas c Inner Join
                    metacriar_app.fin_bancos b On c.idBanco = b.idBanco
                  Where
                    c.sitExclusao = 'N'                
                 
 Tempo de Execução:0.026798963546753
 Hora da Execução:  22:45:49

Select
                    b.descBanco,
                    c.nomeReferencia,
                    c.numAgencia,
                    c.numConta,
                    c.sitStatusConta,
                    c.sitExclusao
                  From
                    metacriar_app.fin_contas c Inner Join
                    metacriar_app.fin_bancos b On c.idBanco = b.idBanco
                  Where
                    c.sitExclusao = 'N'                
                 
 Tempo de Execução:0.000823974609375
 Hora da Execução:  22:47:36

Select
                    b.descBanco,
                    c.nomeReferencia,
                    c.numAgencia,
                    c.numConta,
                    c.sitStatusConta,
                    c.sitExclusao
                  From
                    metacriar_app.fin_contas c Inner Join
                    metacriar_app.fin_bancos b On c.idBanco = b.idBanco
                  Where
                    c.sitExclusao = 'N'                
                 
 Tempo de Execução:0.00062894821166992
 Hora da Execução:  22:50:52

Select
                    b.descBanco,
                    c.nomeReferencia,
                    c.numAgencia,
                    c.numConta,
                    c.sitStatusConta,
                    c.sitExclusao
                  From
                    metacriar_app.fin_contas c Inner Join
                    metacriar_app.fin_bancos b On c.idBanco = b.idBanco
                  Where
                    c.sitExclusao = 'N'                
                 
 Tempo de Execução:0.00054407119750977
 Hora da Execução:  22:51:00

Select
                    b.descBanco,
                    c.nomeReferencia,
                    c.numAgencia,
                    c.numConta,
                    c.sitStatusConta,
                    c.sitExclusao
                  From
                    metacriar_app.fin_contas c Inner Join
                    metacriar_app.fin_bancos b On c.idBanco = b.idBanco
                  Where
                    c.sitExclusao = 'N'                
                 
 Tempo de Execução:0.00066995620727539
 Hora da Execução:  22:51:36

Select
                    b.descBanco,
                    c.nomeReferencia,
                    c.numAgencia,
                    c.numConta,
                    c.sitStatusConta,
                    c.sitExclusao
                  From
                    metacriar_app.fin_contas c Inner Join
                    metacriar_app.fin_bancos b On c.idBanco = b.idBanco
                  Where
                    c.sitExclusao = 'N'                
                 
 Tempo de Execução:0.00068211555480957
 Hora da Execução:  23:13:40

Select
                    b.descBanco,
                    c.nomeReferencia,
                    c.numAgencia,
                    c.numConta,
                    c.sitStatusConta,
                    c.sitExclusao
                  From
                    metacriar_app.fin_contas c Inner Join
                    metacriar_app.fin_bancos b On c.idBanco = b.idBanco
                  Where
                    c.sitExclusao = 'N'                
                 
 Tempo de Execução:0.00066113471984863
 Hora da Execução:  23:16:33

Select
                    b.idBanco,
                    b.descBanco,
                    c.nomeReferencia,
                    c.numAgencia,
                    c.numConta,
                    c.sitStatusConta,
                    c.sitExclusao
                  From
                    metacriar_app.fin_contas c Inner Join
                    metacriar_app.fin_bancos b On c.idBanco = b.idBanco
                  Where
                    c.sitExclusao = 'N'                
                 
 Tempo de Execução:0.00059199333190918
 Hora da Execução:  23:16:59

Select
                    b.idBanco,
                    b.descBanco,
                    c.idContas,
                    c.nomeReferencia,
                    c.numAgencia,
                    c.numConta,
                    c.sitStatusConta,
                    c.sitExclusao
                  From
                    metacriar_app.fin_contas c Inner Join
                    metacriar_app.fin_bancos b On c.idBanco = b.idBanco
                  Where
                    c.sitExclusao = 'N'                
                 
 Tempo de Execução:0.00060415267944336
 Hora da Execução:  23:17:24

Select
                    b.idBanco,
                    b.descBanco,
                    c.idContas,
                    c.nomeReferencia,
                    c.numAgencia,
                    c.numConta,
                    c.sitStatusConta,
                    c.sitExclusao
                  From
                    metacriar_app.fin_contas c Inner Join
                    metacriar_app.fin_bancos b On c.idBanco = b.idBanco
                  Where
                    c.sitExclusao = 'N'                
                 
 Tempo de Execução:0.00059008598327637
 Hora da Execução:  23:18:05

Select
                    b.idBanco,
                    b.descBanco,
                    c.idContas,
                    c.nomeReferencia,
                    c.numAgencia,
                    c.numConta,
                    c.sitStatusConta,
                    c.sitExclusao
                  From
                    metacriar_app.fin_contas c Inner Join
                    metacriar_app.fin_bancos b On c.idBanco = b.idBanco
                  Where
                    c.sitExclusao = 'N'                
                 
 Tempo de Execução:0.00066399574279785
 Hora da Execução:  23:18:43

Select
                    b.idBanco,
                    b.descBanco,
                    c.idContas,
                    c.nomeReferencia,
                    c.numAgencia,
                    c.numConta,
                    c.sitStatusConta,
                    c.sitExclusao
                  From
                    metacriar_app.fin_contas c Inner Join
                    metacriar_app.fin_bancos b On c.idBanco = b.idBanco
                  Where
                    c.sitExclusao = 'N'                
                 
 Tempo de Execução:0.00064682960510254
 Hora da Execução:  23:30:52

Select
                    b.idBanco,
                    b.descBanco,
                    c.idContas,
                    c.nomeReferencia,
                    c.numAgencia,
                    c.numConta,
                    c.sitStatusConta,
                    c.sitExclusao
                  From
                    metacriar_app.fin_contas c Inner Join
                    metacriar_app.fin_bancos b On c.idBanco = b.idBanco
                  Where
                    c.sitExclusao = 'N'                
                 
 Tempo de Execução:0.00094509124755859
 Hora da Execução:  23:31:17

Select
                    b.idBanco,
                    b.descBanco,
                    c.idContas,
                    c.nomeReferencia,
                    c.numAgencia,
                    c.numConta,
                    c.sitStatusConta,
                    c.sitExclusao
                  From
                    metacriar_app.fin_contas c Inner Join
                    metacriar_app.fin_bancos b On c.idBanco = b.idBanco
                  Where
                    c.sitExclusao = 'N'                
                 
 Tempo de Execução:0.00072193145751953
 Hora da Execução:  23:35:30

Select
                    b.idBanco,
                    b.descBanco,
                    c.idContas,
                    c.nomeReferencia,
                    c.numAgencia,
                    c.numConta,
                    c.sitStatusConta,
                    c.sitExclusao
                  From
                    metacriar_app.fin_contas c Inner Join
                    metacriar_app.fin_bancos b On c.idBanco = b.idBanco
                  Where
                    c.sitExclusao = 'N'                
                 
 Tempo de Execução:0.17100811004639
 Hora da Execução:  23:37:57

SELECT *
FROM (`fin_bancos`) 
 Tempo de Execução:0.0010168552398682
 Hora da Execução:  23:38:27

SELECT *
FROM (`fin_tipoconta`) 
 Tempo de Execução:0.00058698654174805
 Hora da Execução:  23:38:27

SELECT *
FROM (`fin_bancos`) 
 Tempo de Execução:0.074347972869873
 Hora da Execução:  23:41:51

SELECT *
FROM (`fin_tipoconta`) 
 Tempo de Execução:0.001366138458252
 Hora da Execução:  23:41:51

Select
                    b.idBanco,
                    b.descBanco,
                    c.idContas,
                    c.nomeReferencia,
                    c.numAgencia,
                    c.numConta,
                    c.sitStatusConta,
                    c.sitExclusao
                  From
                    metacriar_app.fin_contas c Inner Join
                    metacriar_app.fin_bancos b On c.idBanco = b.idBanco
                  Where
                    c.sitExclusao = 'N'                
                 
 Tempo de Execução:0.06630802154541
 Hora da Execução:  23:42:37

SELECT *
FROM (`fin_bancos`) 
 Tempo de Execução:0.0011959075927734
 Hora da Execução:  23:44:45

SELECT *
FROM (`fin_tipoconta`) 
 Tempo de Execução:0.0005640983581543
 Hora da Execução:  23:44:45

Select
                    b.idBanco,
                    b.descBanco,
                    c.idContas,
                    c.nomeReferencia,
                    c.numAgencia,
                    c.numConta,
                    c.sitStatusConta,
                    c.sitExclusao
                  From
                    metacriar_app.fin_contas c Inner Join
                    metacriar_app.fin_bancos b On c.idBanco = b.idBanco
                  Where
                    c.sitExclusao = 'N'                
                 
 Tempo de Execução:0.0006258487701416
 Hora da Execução:  23:45:23

Select
                    b.idBanco,
                    b.descBanco,
                    c.nomeReferencia,
                    c.numAgencia,
                    c.numConta,
                    c.sitStatusConta,
                    c.sitExclusao,
                    c.idContas,
                    t.idTipoConta,
                    t.descTipoConta,
                    c.nomeReferencia,
                    c.saldoInicial,
                    c.dthSaldoInicial
                  From
                    metacriar_app.fin_contas c Inner Join
                    metacriar_app.fin_bancos b On c.idBanco = b.idBanco Inner Join
                    metacriar_app.fin_tipoconta t On c.idTipoConta = t.idTipoConta
                  Where
                    c.sitExclusao = 'N' And
                    c.idContas = 2              
                 
 Tempo de Execução:0.00061297416687012
 Hora da Execução:  23:46:42

Select
                    b.idBanco,
                    b.descBanco,
                    c.nomeReferencia,
                    c.numAgencia,
                    c.numConta,
                    c.sitStatusConta,
                    c.sitExclusao,
                    c.idContas,
                    t.idTipoConta,
                    t.descTipoConta,
                    c.nomeReferencia,
                    c.saldoInicial,
                    c.dthSaldoInicial
                  From
                    metacriar_app.fin_contas c Inner Join
                    metacriar_app.fin_bancos b On c.idBanco = b.idBanco Inner Join
                    metacriar_app.fin_tipoconta t On c.idTipoConta = t.idTipoConta
                  Where
                    c.sitExclusao = 'N' And
                    c.idContas = 2              
                 
 Tempo de Execução:0.00068283081054688
 Hora da Execução:  23:47:36

Select
                    b.idBanco,
                    b.descBanco,
                    c.idContas,
                    c.nomeReferencia,
                    c.numAgencia,
                    c.numConta,
                    c.sitStatusConta,
                    c.sitExclusao
                  From
                    metacriar_app.fin_contas c Inner Join
                    metacriar_app.fin_bancos b On c.idBanco = b.idBanco
                  Where
                    c.sitExclusao = 'N'                
                 
 Tempo de Execução:0.0007789134979248
 Hora da Execução:  23:48:08

Select
                    b.idBanco,
                    b.descBanco,
                    c.nomeReferencia,
                    c.numAgencia,
                    c.numConta,
                    c.sitStatusConta,
                    c.sitExclusao,
                    c.idContas,
                    t.idTipoConta,
                    t.descTipoConta,
                    c.nomeReferencia,
                    c.saldoInicial,
                    c.dthSaldoInicial
                  From
                    metacriar_app.fin_contas c Inner Join
                    metacriar_app.fin_bancos b On c.idBanco = b.idBanco Inner Join
                    metacriar_app.fin_tipoconta t On c.idTipoConta = t.idTipoConta
                  Where
                    c.sitExclusao = 'N' And
                    c.idContas = 2              
                 
 Tempo de Execução:0.020806074142456
 Hora da Execução:  23:48:12

Select
                    b.idBanco,
                    b.descBanco,
                    c.nomeReferencia,
                    c.numAgencia,
                    c.numConta,
                    c.sitStatusConta,
                    c.sitExclusao,
                    c.idContas,
                    t.idTipoConta,
                    t.descTipoConta,
                    c.nomeReferencia,
                    c.saldoInicial,
                    c.dthSaldoInicial
                  From
                    metacriar_app.fin_contas c Inner Join
                    metacriar_app.fin_bancos b On c.idBanco = b.idBanco Inner Join
                    metacriar_app.fin_tipoconta t On c.idTipoConta = t.idTipoConta
                  Where
                    c.sitExclusao = 'N' And
                    c.idContas = 2              
                 
 Tempo de Execução:0.00065398216247559
 Hora da Execução:  23:48:40

Select
                    b.idBanco,
                    b.descBanco,
                    c.nomeReferencia,
                    c.numAgencia,
                    c.numConta,
                    c.sitStatusConta,
                    c.sitExclusao,
                    c.idContas,
                    t.idTipoConta,
                    t.descTipoConta,
                    c.nomeReferencia,
                    c.saldoInicial,
                    c.dthSaldoInicial
                  From
                    metacriar_app.fin_contas c Inner Join
                    metacriar_app.fin_bancos b On c.idBanco = b.idBanco Inner Join
                    metacriar_app.fin_tipoconta t On c.idTipoConta = t.idTipoConta
                  Where
                    c.sitExclusao = 'N' And
                    c.idContas = 2              
                 
 Tempo de Execução:0.13367199897766
 Hora da Execução:  23:50:17

Select
                    b.idBanco,
                    b.descBanco,
                    c.nomeReferencia,
                    c.numAgencia,
                    c.numConta,
                    c.sitStatusConta,
                    c.sitExclusao,
                    c.idContas,
                    t.idTipoConta,
                    t.descTipoConta,
                    c.nomeReferencia,
                    c.saldoInicial,
                    c.dthSaldoInicial
                  From
                    metacriar_app.fin_contas c Inner Join
                    metacriar_app.fin_bancos b On c.idBanco = b.idBanco Inner Join
                    metacriar_app.fin_tipoconta t On c.idTipoConta = t.idTipoConta
                  Where
                    c.sitExclusao = 'N' And
                    c.idContas = 3              
                 
 Tempo de Execução:0.00076508522033691
 Hora da Execução:  23:50:28

Select
                    b.idBanco,
                    b.descBanco,
                    c.nomeReferencia,
                    c.numAgencia,
                    c.numConta,
                    c.sitStatusConta,
                    c.sitExclusao,
                    c.idContas,
                    t.idTipoConta,
                    t.descTipoConta,
                    c.nomeReferencia,
                    c.saldoInicial,
                    c.dthSaldoInicial
                  From
                    metacriar_app.fin_contas c Inner Join
                    metacriar_app.fin_bancos b On c.idBanco = b.idBanco Inner Join
                    metacriar_app.fin_tipoconta t On c.idTipoConta = t.idTipoConta
                  Where
                    c.sitExclusao = 'N' And
                    c.idContas = 2              
                 
 Tempo de Execução:0.11773490905762
 Hora da Execução:  23:50:35

Select
                    b.idBanco,
                    b.descBanco,
                    c.nomeReferencia,
                    c.numAgencia,
                    c.numConta,
                    c.sitStatusConta,
                    c.sitExclusao,
                    c.idContas,
                    t.idTipoConta,
                    t.descTipoConta,
                    c.nomeReferencia,
                    c.saldoInicial,
                    c.dthSaldoInicial
                  From
                    metacriar_app.fin_contas c Inner Join
                    metacriar_app.fin_bancos b On c.idBanco = b.idBanco Inner Join
                    metacriar_app.fin_tipoconta t On c.idTipoConta = t.idTipoConta
                  Where
                    c.sitExclusao = 'N' And
                    c.idContas = 2              
                 
 Tempo de Execução:0.00069904327392578
 Hora da Execução:  23:51:24

Select
                    b.idBanco,
                    b.descBanco,
                    c.nomeReferencia,
                    c.numAgencia,
                    c.numConta,
                    c.sitStatusConta,
                    c.sitExclusao,
                    c.idContas,
                    t.idTipoConta,
                    t.descTipoConta,
                    c.nomeReferencia,
                    c.saldoInicial,
                    c.dthSaldoInicial
                  From
                    metacriar_app.fin_contas c Inner Join
                    metacriar_app.fin_bancos b On c.idBanco = b.idBanco Inner Join
                    metacriar_app.fin_tipoconta t On c.idTipoConta = t.idTipoConta
                  Where
                    c.sitExclusao = 'N' And
                    c.idContas = 2              
                 
 Tempo de Execução:0.00076794624328613
 Hora da Execução:  23:53:20

SELECT *
FROM (`fin_bancos`) 
 Tempo de Execução:0.0020630359649658
 Hora da Execução:  23:53:20

SELECT *
FROM (`fin_tipoconta`) 
 Tempo de Execução:0.00076889991760254
 Hora da Execução:  23:53:20

Select
                    b.idBanco,
                    b.descBanco,
                    c.nomeReferencia,
                    c.numAgencia,
                    c.numConta,
                    c.sitStatusConta,
                    c.sitExclusao,
                    c.idContas,
                    t.idTipoConta,
                    t.descTipoConta,
                    c.nomeReferencia,
                    c.saldoInicial,
                    c.dthSaldoInicial
                  From
                    metacriar_app.fin_contas c Inner Join
                    metacriar_app.fin_bancos b On c.idBanco = b.idBanco Inner Join
                    metacriar_app.fin_tipoconta t On c.idTipoConta = t.idTipoConta
                  Where
                    c.sitExclusao = 'N' And
                    c.idContas = 2              
                 
 Tempo de Execução:0.00071907043457031
 Hora da Execução:  23:54:14

SELECT *
FROM (`fin_bancos`) 
 Tempo de Execução:0.0015377998352051
 Hora da Execução:  23:54:14

SELECT *
FROM (`fin_tipoconta`) 
 Tempo de Execução:0.0013630390167236
 Hora da Execução:  23:54:14

Select
                    b.idBanco,
                    b.descBanco,
                    c.nomeReferencia,
                    c.numAgencia,
                    c.numConta,
                    c.sitStatusConta,
                    c.sitExclusao,
                    c.idContas,
                    t.idTipoConta,
                    t.descTipoConta,
                    c.nomeReferencia,
                    c.saldoInicial,
                    c.dthSaldoInicial
                  From
                    metacriar_app.fin_contas c Inner Join
                    metacriar_app.fin_bancos b On c.idBanco = b.idBanco Inner Join
                    metacriar_app.fin_tipoconta t On c.idTipoConta = t.idTipoConta
                  Where
                    c.sitExclusao = 'N' And
                    c.idContas = 2              
                 
 Tempo de Execução:0.00064706802368164
 Hora da Execução:  23:54:42

SELECT *
FROM (`fin_bancos`) 
 Tempo de Execução:0.0010359287261963
 Hora da Execução:  23:54:42

SELECT *
FROM (`fin_tipoconta`) 
 Tempo de Execução:0.00055694580078125
 Hora da Execução:  23:54:42

Select
                    b.idBanco,
                    b.descBanco,
                    c.nomeReferencia,
                    c.numAgencia,
                    c.numConta,
                    c.sitStatusConta,
                    c.sitExclusao,
                    c.idContas,
                    t.idTipoConta,
                    t.descTipoConta,
                    c.nomeReferencia,
                    c.saldoInicial,
                    c.dthSaldoInicial
                  From
                    metacriar_app.fin_contas c Inner Join
                    metacriar_app.fin_bancos b On c.idBanco = b.idBanco Inner Join
                    metacriar_app.fin_tipoconta t On c.idTipoConta = t.idTipoConta
                  Where
                    c.sitExclusao = 'N' And
                    c.idContas = 2              
                 
 Tempo de Execução:0.00067305564880371
 Hora da Execução:  23:54:49

SELECT *
FROM (`fin_bancos`) 
 Tempo de Execução:0.045317888259888
 Hora da Execução:  23:54:49

SELECT *
FROM (`fin_tipoconta`) 
 Tempo de Execução:0.00062203407287598
 Hora da Execução:  23:54:49

Select
                    b.idBanco,
                    b.descBanco,
                    c.nomeReferencia,
                    c.numAgencia,
                    c.numConta,
                    c.sitStatusConta,
                    c.sitExclusao,
                    c.idContas,
                    t.idTipoConta,
                    t.descTipoConta,
                    c.nomeReferencia,
                    c.saldoInicial,
                    c.dthSaldoInicial
                  From
                    metacriar_app.fin_contas c Inner Join
                    metacriar_app.fin_bancos b On c.idBanco = b.idBanco Inner Join
                    metacriar_app.fin_tipoconta t On c.idTipoConta = t.idTipoConta
                  Where
                    c.sitExclusao = 'N' And
                    c.idContas = 2              
                 
 Tempo de Execução:0.00072193145751953
 Hora da Execução:  23:58:37

Select
                    b.idBanco,
                    b.descBanco,
                    c.idContas,
                    c.nomeReferencia,
                    c.numAgencia,
                    c.numConta,
                    c.sitStatusConta,
                    c.sitExclusao
                  From
                    metacriar_app.fin_contas c Inner Join
                    metacriar_app.fin_bancos b On c.idBanco = b.idBanco
                  Where
                    c.sitExclusao = 'N'                
                 
 Tempo de Execução:0.00063896179199219
 Hora da Execução:  23:58:44

Select
                    b.idBanco,
                    b.descBanco,
                    c.idContas,
                    c.nomeReferencia,
                    c.numAgencia,
                    c.numConta,
                    c.sitStatusConta,
                    c.sitExclusao
                  From
                    metacriar_app.fin_contas c Inner Join
                    metacriar_app.fin_bancos b On c.idBanco = b.idBanco
                  Where
                    c.sitExclusao = 'N'                
                 
 Tempo de Execução:0.00059199333190918
 Hora da Execução:  23:59:04

Select
                    b.idBanco,
                    b.descBanco,
                    c.nomeReferencia,
                    c.numAgencia,
                    c.numConta,
                    c.sitStatusConta,
                    c.sitExclusao,
                    c.idContas,
                    t.idTipoConta,
                    t.descTipoConta,
                    c.nomeReferencia,
                    c.saldoInicial,
                    c.dthSaldoInicial
                  From
                    metacriar_app.fin_contas c Inner Join
                    metacriar_app.fin_bancos b On c.idBanco = b.idBanco Inner Join
                    metacriar_app.fin_tipoconta t On c.idTipoConta = t.idTipoConta
                  Where
                    c.sitExclusao = 'N' And
                    c.idContas = 2              
                 
 Tempo de Execução:0.00064611434936523
 Hora da Execução:  23:59:09

SELECT *
FROM (`fin_bancos`) 
 Tempo de Execução:0.067389965057373
 Hora da Execução:  23:59:09

SELECT *
FROM (`fin_tipoconta`) 
 Tempo de Execução:0.00061893463134766
 Hora da Execução:  23:59:09

Select
                    b.idBanco,
                    b.descBanco,
                    c.nomeReferencia,
                    c.numAgencia,
                    c.numConta,
                    c.sitStatusConta,
                    c.sitExclusao,
                    c.idContas,
                    t.idTipoConta,
                    t.descTipoConta,
                    c.nomeReferencia,
                    c.saldoInicial,
                    c.dthSaldoInicial
                  From
                    metacriar_app.fin_contas c Inner Join
                    metacriar_app.fin_bancos b On c.idBanco = b.idBanco Inner Join
                    metacriar_app.fin_tipoconta t On c.idTipoConta = t.idTipoConta
                  Where
                    c.sitExclusao = 'N' And
                    c.idContas = 2              
                 
 Tempo de Execução:0.00073504447937012
 Hora da Execução:  23:59:33

SELECT *
FROM (`fin_bancos`) 
 Tempo de Execução:0.00089502334594727
 Hora da Execução:  23:59:33

SELECT *
FROM (`fin_tipoconta`) 
 Tempo de Execução:0.00047492980957031
 Hora da Execução:  23:59:33

Select
                    b.idBanco,
                    b.descBanco,
                    c.nomeReferencia,
                    c.numAgencia,
                    c.numConta,
                    c.sitStatusConta,
                    c.sitExclusao,
                    c.idContas,
                    t.idTipoConta,
                    t.descTipoConta,
                    c.nomeReferencia,
                    c.saldoInicial,
                    c.dthSaldoInicial
                  From
                    metacriar_app.fin_contas c Inner Join
                    metacriar_app.fin_bancos b On c.idBanco = b.idBanco Inner Join
                    metacriar_app.fin_tipoconta t On c.idTipoConta = t.idTipoConta
                  Where
                    c.sitExclusao = 'N' And
                    c.idContas = 2              
                 
 Tempo de Execução:0.00074911117553711
 Hora da Execução:  23:59:57

SELECT *
FROM (`fin_bancos`) 
 Tempo de Execução:0.00094079971313477
 Hora da Execução:  23:59:57

SELECT *
FROM (`fin_tipoconta`) 
 Tempo de Execução:0.0004279613494873
 Hora da Execução:  23:59:57

