SELECT *
FROM (`fpg_funcionario`)
WHERE `idFuncionario` =  '1' 
 Tempo de Execução:0.015806913375854
 Hora da Execução:  15:45:36

SELECT descRealImagem FROM usu_imagens WHERE idUsuarios = 1 Order By idImagem DESC LIMIT 1 
 Tempo de Execução:0.040757894515991
 Hora da Execução:  15:45:36


                SELECT
                    p.idProcesso,
                    e.nomeEntidade,
                    p.numProcesso,
                    p.objetoAcao
                  FROM
                    pro_processos p INNER JOIN
                    ent_entidades e ON p.idCliente = e.idEntidade
                    WHERE
                    p.idMaster = 2 AND
                    p.sitExclusao = 'N'      
                 
 Tempo de Execução:0.10646891593933
 Hora da Execução:  15:47:05

SELECT descRealImagem FROM usu_imagens WHERE idUsuarios = 1 Order By idImagem DESC LIMIT 1 
 Tempo de Execução:0.00085997581481934
 Hora da Execução:  15:47:05

SELECT *
FROM (`pro_natureza`) 
 Tempo de Execução:0.095643997192383
 Hora da Execução:  15:47:16

SELECT *
FROM (`pro_justica`) 
 Tempo de Execução:0.0010149478912354
 Hora da Execução:  15:47:16

SELECT *
FROM (`ent_entidades`)
WHERE `sitExclusao` =  'N'
AND `tipoEntidade` =  'cliente' 
 Tempo de Execução:0.011606931686401
 Hora da Execução:  15:47:16

SELECT *
FROM (`usu_usuarios`)
WHERE `sitExclusao` =  'N' 
 Tempo de Execução:0.0054261684417725
 Hora da Execução:  15:47:16

SELECT descRealImagem FROM usu_imagens WHERE idUsuarios = 1 Order By idImagem DESC LIMIT 1 
 Tempo de Execução:0.0015950202941895
 Hora da Execução:  15:47:16

SELECT *
FROM (`pro_instancia`)
WHERE `idJustica` =  '2' 
 Tempo de Execução:0.00049686431884766
 Hora da Execução:  15:47:42

SELECT *
FROM (`pro_instancia`)
WHERE `idJustica` =  '7' 
 Tempo de Execução:0.00055289268493652
 Hora da Execução:  15:47:53

SELECT *
FROM (`pro_instancia`)
WHERE `idJustica` =  '3' 
 Tempo de Execução:0.00044488906860352
 Hora da Execução:  15:48:00

